<?xml version="1.0" encoding="utf-8"?>
<!-- Generator: Adobe Illustrator 18.1.1, SVG Export Plug-In . SVG Version: 6.00 Build 0)  -->
<svg version="1.1" id="Capa_1" xmlns="http://www.w3.org/2000/svg" xmlns:xlink="http://www.w3.org/1999/xlink" x="0px" y="0px"
	 width="19.5px" height="17px" viewBox="119.2 376.5 19.5 17" enable-background="new 119.2 376.5 19.5 17" xml:space="preserve">
<g>
	<path fill="#FFFFFF" stroke="#FFFFFF" stroke-miterlimit="10" d="M130.3,377c-4.4,0-8,3.6-8,8v0l-1.6-2.4c-0.2-0.2-0.5-0.3-0.7-0.1
		c-0.2,0.2-0.3,0.5-0.1,0.7l2.3,3.5c0.1,0.1,0.2,0.2,0.4,0.2c0,0,0,0,0.1,0c0.1,0,0.2,0,0.3-0.1l3.2-2.9c0.2-0.2,0.2-0.5,0-0.7
		c-0.2-0.2-0.5-0.2-0.7,0l-2.1,1.9v0c0-3.9,3.1-7,7-7c3.8,0,7,3.1,7,7s-3.1,7-7,7c-1.9,0-3.6-0.7-4.9-2c-0.2-0.2-0.5-0.2-0.7,0
		c-0.2,0.2-0.2,0.5,0,0.7c1.5,1.5,3.5,2.3,5.7,2.3c4.4,0,8-3.6,8-8S134.7,377,130.3,377z"/>
</g>
</svg>
